[   
    {
        "Nombre": "Nayia",
        "Apellido":"Burba",
        "Semestre":"Noveno Nivel",
        "Paralelo":"B",
        "Direccion":"15 abril",
        "Telefono":"099731451",
        "Correo":"Burb@gmail.com"

         
    }
]