[   
    {
        "Nombre": "Carlos",
        "Apellido":"Bueno",
        "Semestre":"Cuarto Nivel",
        "Paralelo":"C",
        "Direccion":"Montalvan",
        "Telefono":"0987323311",
        "Correo":"joser@gmail.com"

         
    }
]